{
  "storage": {
    "input": {
      "files": [],
      "tables": [
        {
          "source": "in.c-test.test",
          "destination": "test.csv",
          "limit": 50,
          "columns": [],
          "where_values": [],
          "where_operator": "eq"
        }
      ]
    },
    "output": {
      "files": [],
      "tables": []
    }
  },
  "parameters": {
    "encrypted": false,
    "tags": [
      "adform"
    ],
    "tag_functions": [
      {
        "function": "filename_split",
        "args": [
          "-"
        ],
        "optional_args": {
          "position": 0,
          "tag_prefix": "date"
        }
      },
      {
        "function": "filename_split",
        "args": [
          "_"
        ],
        "optional_args": {
          "position": 0,
          "tag_prefix": "datetime"
        }
      },
      {
        "function": "filename_split",
        "args": [
          "_"
        ],
        "optional_args": {
          "position": 1,
          "tag_prefix": "type"
        }
      },
      {
        "function": "filename_split",
        "args": [
          "_"
        ],
        "optional_args": {
          "position": 2,
          "tag_prefix": "id"
        }
      },
      {
        "function": "file_name",
        "optional_args": {
          "tag_prefix": "file_name"
        }
      }
    ],
    "is_permanent": true,
    "notify": false,
    "debug": true
  },
  "image_parameters": {
    "syrup_url": "https://syrup.keboola.com/"
  },
  "authorization": {
    "oauth_api": {
      "id": "OAUTH_API_ID",
      "credentials": {
        "id": "main",
        "authorizedFor": "Myself",
        "creator": {
          "id": "1234",
          "description": "me@keboola.com"
        },
        "created": "2016-01-31 00:13:30",
        "#data": "{\"refresh_token\":\"XXXXX-TOKEN\"}",
        "oauthVersion": "2.0",
        "appKey": "12345",
        "#appSecret": "123qwe-CiN"
      }
    }
  }
}
